
{
    "comment" : "This file is used to help set default values when using the dotnet CLI extension Amazon.ElasticBeanstalk.Tools. For more information run \"dotnet eb --help\" from the project root.",
    "profile" : "Travel",
    "region"  : "ap-south-1",
    "application" : "TravelAppApi",
    "environment" : "TravelAppApi-dev",
    "solution-stack" : "64bit Windows Server Core 2016 v2.5.9 running IIS 10.0",
    "iis-website"    : "Default Web Site",
    "app-path"       : "/",
    "enable-xray"    : false,
    "cname"          : "travelapp-dev",
    "environment-type" : "LoadBalanced",
    "instance-profile" : "aws-elasticbeanstalk-ec2-role",
    "service-role"     : "aws-elasticbeanstalk-service-role",
    "health-check-url" : "/",
    "instance-type"    : "t2.micro",
    "key-pair"         : ""
}